<?xml version="1.0" encoding="utf-8"?>
<!-- Generator: Adobe Illustrator 24.1.2, SVG Export Plug-In . SVG Version: 6.00 Build 0)  -->
<svg version="1.1" id="Capa_1" xmlns="http://www.w3.org/2000/svg" xmlns:xlink="http://www.w3.org/1999/xlink" x="0px" y="0px"
	 viewBox="0 0 17 15" style="enable-background:new 0 0 17 15;" xml:space="preserve">
<path d="M5,0.5H3c-1.7,0-3,1.4-3,3v7.9c0,1.7,1.4,3,3,3H5c1.7,0,3-1.4,3-3V3.5C8,1.9,6.6,0.5,5,0.5z"/>
<path d="M14,1.5h-3c-1.1,0-2,0.9-2,2v0c0,1.1,0.9,2,2,2h3c1.1,0,2-0.9,2-2v0C16,2.4,15.1,1.5,14,1.5z"/>
<path d="M14,6.5h-3c-1.1,0-2,0.9-2,2v0c0,1.1,0.9,2,2,2h3c1.1,0,2-0.9,2-2v0C16,7.4,15.1,6.5,14,6.5z"/>
</svg>
